<svg width="79" height="47" viewBox="0 0 79 47" fill="none" xmlns="http://www.w3.org/2000/svg">
<path fill-rule="evenodd" clip-rule="evenodd" d="M11.8843 0H3.33445C0.891613 0 0.403015 1.14981 0.403015 2.41734C0.403015 4.68155 3.30163 15.9108 13.8994 30.7624C20.9646 40.9048 30.9187 46.4028 39.9768 46.4028C45.4115 46.4028 46.0839 45.1817 46.0839 43.0784V35.4126C46.0839 32.9704 46.5987 32.4829 48.3195 32.4829C49.5878 32.4829 51.7616 33.1169 56.8342 38.0071C62.6313 43.8028 63.587 46.4028 66.8476 46.4028H75.3975C77.8405 46.4028 79.0618 45.1817 78.3572 42.7719C77.5862 40.3702 74.8184 36.8853 71.1458 32.7547C69.1529 30.4002 66.1638 27.8646 65.258 26.5966C63.99 24.9666 64.3522 24.242 65.258 22.7933C65.258 22.7933 75.6747 8.12269 76.7617 3.1422C77.3051 1.33078 76.7617 0 74.1761 0H65.6263C63.4524 0 62.4501 1.14981 61.9065 2.41734C61.9065 2.41734 57.5588 13.0128 51.3994 19.8953C49.4065 21.8875 48.5007 22.5215 47.4137 22.5215C46.8703 22.5215 46.0836 21.8875 46.0836 20.0765V3.1422C46.0836 0.968597 45.4528 0 43.6409 0H30.2053C28.8469 0 28.0298 1.00865 28.0298 1.96479C28.0298 4.02507 31.1094 4.50034 31.4269 10.296V22.8839C31.4269 25.6436 30.9282 26.1441 29.8414 26.1441C26.943 26.1441 19.8924 15.5012 15.7108 3.32317C14.8914 0.956143 14.0694 0 11.8843 0V0Z" fill="white"/>
</svg>
